{
  "files": {
    "main.css": "/static/css/main.2ff9b160.chunk.css",
    "main.js": "/static/js/main.2fe1aaf4.chunk.js",
    "main.js.map": "/static/js/main.2fe1aaf4.chunk.js.map",
    "runtime-main.js": "/static/js/runtime-main.5028c8d2.js",
    "runtime-main.js.map": "/static/js/runtime-main.5028c8d2.js.map",
    "static/js/2.bc21c513.chunk.js": "/static/js/2.bc21c513.chunk.js",
    "static/js/2.bc21c513.chunk.js.map": "/static/js/2.bc21c513.chunk.js.map",
    "index.html": "/index.html",
    "precache-manifest.ed77c94785c0140c85e943ea05a3dda2.js": "/precache-manifest.ed77c94785c0140c85e943ea05a3dda2.js",
    "service-worker.js": "/service-worker.js",
    "static/css/main.2ff9b160.chunk.css.map": "/static/css/main.2ff9b160.chunk.css.map",
    "static/js/2.bc21c513.chunk.js.LICENSE.txt": "/static/js/2.bc21c513.chunk.js.LICENSE.txt",
    "static/media/Side_bar.scss": "/static/media/GoogleSans-ThinItalic.eee0a313.eot",
    "static/media/Logo.png": "/static/media/Logo.cac831bc.png"
  },
  "entrypoints": [
    "static/js/runtime-main.5028c8d2.js",
    "static/js/2.bc21c513.chunk.js",
    "static/css/main.2ff9b160.chunk.css",
    "static/js/main.2fe1aaf4.chunk.js"
  ]
}